Machine Learning Kickstarter
…
3.5 $launched_at

The number of projects increased exponentially 2009 - 2012 and seems to be increasing more gradually after 2012. The dataset has only partial data for December 2013.

df_engr %>%
  group_by(mo_yr_launched)  %>% 
  summarise(n(), 
            success_rate = round(mean(funded)*100, 2),
            mean(percent_funded, na.rm = TRUE), 
            mean (avg_contribution, na.rm = TRUE)) %>%
  ungroup(mo_yr_launched)

## # A tibble: 57 x 5
##    mo_yr_launched `n()` success_rate `mean(percent_fun `mean(avg_contrib
##    <chr>          <int>        <dbl>              <dbl>              <dbl>
##  1 01-2010          118         58.5               82.4               68.3
##  2 01-2011          660         62.3               88.5               70.5
##  3 01-2012         1227         53.6              128.                67.1
##  4 01-2013         1388         55.6              124.                64.7
##  5 02-2010          139         62.6               89.9               75.1
##  6 02-2011          578         62.1               85.7               76.4
##  7 02-2012         1494         58.4              324.                71.9
##  8 02-2013         1435         59.0              121.                69.9
##  9 03-2010          209         65.1               89.6               78.5
## 10 03-2011          477         66.0              103.                76.7
## # ... with 47 more rows
…
